EESchema Schematic File Version 4
EELAYER 30 0
EELAYER END
$Descr A4 11693 8268
encoding utf-8
Sheet 1 1
Title ""
Date ""
Rev ""
Comp ""
Comment1 ""
Comment2 ""
Comment3 ""
Comment4 ""
$EndDescr
$Comp
L JLC:WS2812B-2020 D1
U 1 1 5F2BAA12
P 1550 1350
F 0 "D1" H 1600 1600 50  0000 L CNN
F 1 "WS2812B-2020" H 1100 1100 50  0000 L CNN
F 2 "JLC:LED_WS2812B_2.0x2.0mm" H 1600 1050 50  0001 L TNN
F 3 "https://atta.szlcsc.com/upload/public/pdf/source/20201203/C965555_5C919C4B6231E6ADE06011FB0D94282B.pdf?Expires=4070880000&OSSAccessKeyId=LTAIJDIkh7KmGS1H&Signature=JmtNwg9GZ7phKEs2rwBLiK4yr5Q%3D&response-content-disposition=attachment%3Bfilename%3DC965555_RBG%25E6%2599%25BA%25E8%2583%25BD%25E5%25A4%2596%25E6%258E%25A7%25E9%259B%2586%25E6%2588%2590LED%25E5%2585%2589%25E6%25BA%2590_2020-12-03.PDF" H 1650 975 50  0001 L TNN
	1    1550 1350
	1    0    0    -1  
$EndComp
$Comp
L JLC:WS2812B-2020 D2
U 1 1 5F2BB389
P 2150 1350
F 0 "D2" H 2200 1600 50  0000 L CNN
F 1 "WS2812B-2020" H 1700 1100 50  0000 L CNN
F 2 "JLC:LED_WS2812B_2.0x2.0mm" H 2200 1050 50  0001 L TNN
F 3 "https://atta.szlcsc.com/upload/public/pdf/source/20201203/C965555_5C919C4B6231E6ADE06011FB0D94282B.pdf?Expires=4070880000&OSSAccessKeyId=LTAIJDIkh7KmGS1H&Signature=JmtNwg9GZ7phKEs2rwBLiK4yr5Q%3D&response-content-disposition=attachment%3Bfilename%3DC965555_RBG%25E6%2599%25BA%25E8%2583%25BD%25E5%25A4%2596%25E6%258E%25A7%25E9%259B%2586%25E6%2588%2590LED%25E5%2585%2589%25E6%25BA%2590_2020-12-03.PDF" H 2250 975 50  0001 L TNN
	1    2150 1350
	1    0    0    -1  
$EndComp
$Comp
L JLC:WS2812B-2020 D3
U 1 1 5F2BBFDD
P 2750 1350
F 0 "D3" H 2800 1600 50  0000 L CNN
F 1 "WS2812B-2020" H 2300 1100 50  0000 L CNN
F 2 "JLC:LED_WS2812B_2.0x2.0mm" H 2800 1050 50  0001 L TNN
F 3 "https://cdn-shop.adafruit.com/datasheets/WS2812B.pdf" H 2850 975 50  0001 L TNN
	1    2750 1350
	1    0    0    -1  
$EndComp
$Comp
L JLC:WS2812B-2020 D4
U 1 1 5F2BC7C6
P 3350 1350
F 0 "D4" H 3400 1600 50  0000 L CNN
F 1 "WS2812B-2020" H 2900 1100 50  0000 L CNN
F 2 "JLC:LED_WS2812B_2.0x2.0mm" H 3400 1050 50  0001 L TNN
F 3 "https://cdn-shop.adafruit.com/datasheets/WS2812B.pdf" H 3450 975 50  0001 L TNN
	1    3350 1350
	1    0    0    -1  
$EndComp
$Comp
L JLC:WS2812B-2020 D5
U 1 1 5F2BFAB0
P 3950 1350
F 0 "D5" H 4000 1600 50  0000 L CNN
F 1 "WS2812B-2020" H 3500 1100 50  0000 L CNN
F 2 "JLC:LED_WS2812B_2.0x2.0mm" H 4000 1050 50  0001 L TNN
F 3 "https://cdn-shop.adafruit.com/datasheets/WS2812B.pdf" H 4050 975 50  0001 L TNN
	1    3950 1350
	1    0    0    -1  
$EndComp
$Comp
L JLC:WS2812B-2020 D6
U 1 1 5F2BFAB6
P 4550 1350
F 0 "D6" H 4600 1600 50  0000 L CNN
F 1 "WS2812B-2020" H 4100 1100 50  0000 L CNN
F 2 "JLC:LED_WS2812B_2.0x2.0mm" H 4600 1050 50  0001 L TNN
F 3 "https://cdn-shop.adafruit.com/datasheets/WS2812B.pdf" H 4650 975 50  0001 L TNN
	1    4550 1350
	1    0    0    -1  
$EndComp
$Comp
L JLC:WS2812B-2020 D7
U 1 1 5F2BFABC
P 5150 1350
F 0 "D7" H 5200 1600 50  0000 L CNN
F 1 "WS2812B-2020" H 4700 1100 50  0000 L CNN
F 2 "JLC:LED_WS2812B_2.0x2.0mm" H 5200 1050 50  0001 L TNN
F 3 "https://cdn-shop.adafruit.com/datasheets/WS2812B.pdf" H 5250 975 50  0001 L TNN
	1    5150 1350
	1    0    0    -1  
$EndComp
$Comp
L JLC:WS2812B-2020 D8
U 1 1 5F2BFAC2
P 5750 1350
F 0 "D8" H 5800 1600 50  0000 L CNN
F 1 "WS2812B-2020" H 5300 1100 50  0000 L CNN
F 2 "JLC:LED_WS2812B_2.0x2.0mm" H 5800 1050 50  0001 L TNN
F 3 "https://cdn-shop.adafruit.com/datasheets/WS2812B.pdf" H 5850 975 50  0001 L TNN
	1    5750 1350
	1    0    0    -1  
$EndComp
$Comp
L JLC:WS2812B-2020 D9
U 1 1 5F2CA4DA
P 1550 2050
F 0 "D9" H 1600 2300 50  0000 L CNN
F 1 "WS2812B-2020" H 1100 1800 50  0000 L CNN
F 2 "JLC:LED_WS2812B_2.0x2.0mm" H 1600 1750 50  0001 L TNN
F 3 "https://cdn-shop.adafruit.com/datasheets/WS2812B.pdf" H 1650 1675 50  0001 L TNN
	1    1550 2050
	1    0    0    -1  
$EndComp
$Comp
L JLC:WS2812B-2020 D10
U 1 1 5F2CA4E0
P 2150 2050
F 0 "D10" H 2200 2300 50  0000 L CNN
F 1 "WS2812B-2020" H 1700 1800 50  0000 L CNN
F 2 "JLC:LED_WS2812B_2.0x2.0mm" H 2200 1750 50  0001 L TNN
F 3 "https://cdn-shop.adafruit.com/datasheets/WS2812B.pdf" H 2250 1675 50  0001 L TNN
	1    2150 2050
	1    0    0    -1  
$EndComp
$Comp
L JLC:WS2812B-2020 D11
U 1 1 5F2CA4E6
P 2750 2050
F 0 "D11" H 2800 2300 50  0000 L CNN
F 1 "WS2812B-2020" H 2300 1800 50  0000 L CNN
F 2 "JLC:LED_WS2812B_2.0x2.0mm" H 2800 1750 50  0001 L TNN
F 3 "https://cdn-shop.adafruit.com/datasheets/WS2812B.pdf" H 2850 1675 50  0001 L TNN
	1    2750 2050
	1    0    0    -1  
$EndComp
$Comp
L JLC:WS2812B-2020 D12
U 1 1 5F2CA4EC
P 3350 2050
F 0 "D12" H 3400 2300 50  0000 L CNN
F 1 "WS2812B-2020" H 2900 1800 50  0000 L CNN
F 2 "JLC:LED_WS2812B_2.0x2.0mm" H 3400 1750 50  0001 L TNN
F 3 "https://cdn-shop.adafruit.com/datasheets/WS2812B.pdf" H 3450 1675 50  0001 L TNN
	1    3350 2050
	1    0    0    -1  
$EndComp
$Comp
L JLC:WS2812B-2020 D13
U 1 1 5F2CA4F2
P 3950 2050
F 0 "D13" H 4000 2300 50  0000 L CNN
F 1 "WS2812B-2020" H 3500 1800 50  0000 L CNN
F 2 "JLC:LED_WS2812B_2.0x2.0mm" H 4000 1750 50  0001 L TNN
F 3 "https://cdn-shop.adafruit.com/datasheets/WS2812B.pdf" H 4050 1675 50  0001 L TNN
	1    3950 2050
	1    0    0    -1  
$EndComp
$Comp
L JLC:WS2812B-2020 D14
U 1 1 5F2CA4F8
P 4550 2050
F 0 "D14" H 4600 2300 50  0000 L CNN
F 1 "WS2812B-2020" H 4100 1800 50  0000 L CNN
F 2 "JLC:LED_WS2812B_2.0x2.0mm" H 4600 1750 50  0001 L TNN
F 3 "https://cdn-shop.adafruit.com/datasheets/WS2812B.pdf" H 4650 1675 50  0001 L TNN
	1    4550 2050
	1    0    0    -1  
$EndComp
$Comp
L JLC:WS2812B-2020 D15
U 1 1 5F2CA4FE
P 5150 2050
F 0 "D15" H 5200 2300 50  0000 L CNN
F 1 "WS2812B-2020" H 4700 1800 50  0000 L CNN
F 2 "JLC:LED_WS2812B_2.0x2.0mm" H 5200 1750 50  0001 L TNN
F 3 "https://cdn-shop.adafruit.com/datasheets/WS2812B.pdf" H 5250 1675 50  0001 L TNN
	1    5150 2050
	1    0    0    -1  
$EndComp
$Comp
L JLC:WS2812B-2020 D16
U 1 1 5F2CA504
P 5750 2050
F 0 "D16" H 5800 2300 50  0000 L CNN
F 1 "WS2812B-2020" H 5300 1800 50  0000 L CNN
F 2 "JLC:LED_WS2812B_2.0x2.0mm" H 5800 1750 50  0001 L TNN
F 3 "https://cdn-shop.adafruit.com/datasheets/WS2812B.pdf" H 5850 1675 50  0001 L TNN
	1    5750 2050
	1    0    0    -1  
$EndComp
$Comp
L JLC:WS2812B-2020 D17
U 1 1 5F2CD62C
P 1550 2750
F 0 "D17" H 1600 3000 50  0000 L CNN
F 1 "WS2812B-2020" H 1100 2500 50  0000 L CNN
F 2 "JLC:LED_WS2812B_2.0x2.0mm" H 1600 2450 50  0001 L TNN
F 3 "https://cdn-shop.adafruit.com/datasheets/WS2812B.pdf" H 1650 2375 50  0001 L TNN
	1    1550 2750
	1    0    0    -1  
$EndComp
$Comp
L JLC:WS2812B-2020 D18
U 1 1 5F2CD632
P 2150 2750
F 0 "D18" H 2200 3000 50  0000 L CNN
F 1 "WS2812B-2020" H 1700 2500 50  0000 L CNN
F 2 "JLC:LED_WS2812B_2.0x2.0mm" H 2200 2450 50  0001 L TNN
F 3 "https://cdn-shop.adafruit.com/datasheets/WS2812B.pdf" H 2250 2375 50  0001 L TNN
	1    2150 2750
	1    0    0    -1  
$EndComp
$Comp
L JLC:WS2812B-2020 D19
U 1 1 5F2CD638
P 2750 2750
F 0 "D19" H 2800 3000 50  0000 L CNN
F 1 "WS2812B-2020" H 2300 2500 50  0000 L CNN
F 2 "JLC:LED_WS2812B_2.0x2.0mm" H 2800 2450 50  0001 L TNN
F 3 "https://cdn-shop.adafruit.com/datasheets/WS2812B.pdf" H 2850 2375 50  0001 L TNN
	1    2750 2750
	1    0    0    -1  
$EndComp
$Comp
L JLC:WS2812B-2020 D20
U 1 1 5F2CD63E
P 3350 2750
F 0 "D20" H 3400 3000 50  0000 L CNN
F 1 "WS2812B-2020" H 2900 2500 50  0000 L CNN
F 2 "JLC:LED_WS2812B_2.0x2.0mm" H 3400 2450 50  0001 L TNN
F 3 "https://cdn-shop.adafruit.com/datasheets/WS2812B.pdf" H 3450 2375 50  0001 L TNN
	1    3350 2750
	1    0    0    -1  
$EndComp
$Comp
L JLC:WS2812B-2020 D21
U 1 1 5F2CD644
P 3950 2750
F 0 "D21" H 4000 3000 50  0000 L CNN
F 1 "WS2812B-2020" H 3500 2500 50  0000 L CNN
F 2 "JLC:LED_WS2812B_2.0x2.0mm" H 4000 2450 50  0001 L TNN
F 3 "https://cdn-shop.adafruit.com/datasheets/WS2812B.pdf" H 4050 2375 50  0001 L TNN
	1    3950 2750
	1    0    0    -1  
$EndComp
$Comp
L JLC:WS2812B-2020 D22
U 1 1 5F2CD64A
P 4550 2750
F 0 "D22" H 4600 3000 50  0000 L CNN
F 1 "WS2812B-2020" H 4100 2500 50  0000 L CNN
F 2 "JLC:LED_WS2812B_2.0x2.0mm" H 4600 2450 50  0001 L TNN
F 3 "https://cdn-shop.adafruit.com/datasheets/WS2812B.pdf" H 4650 2375 50  0001 L TNN
	1    4550 2750
	1    0    0    -1  
$EndComp
$Comp
L JLC:WS2812B-2020 D23
U 1 1 5F2CD650
P 5150 2750
F 0 "D23" H 5200 3000 50  0000 L CNN
F 1 "WS2812B-2020" H 4700 2500 50  0000 L CNN
F 2 "JLC:LED_WS2812B_2.0x2.0mm" H 5200 2450 50  0001 L TNN
F 3 "https://cdn-shop.adafruit.com/datasheets/WS2812B.pdf" H 5250 2375 50  0001 L TNN
	1    5150 2750
	1    0    0    -1  
$EndComp
$Comp
L JLC:WS2812B-2020 D24
U 1 1 5F2CD656
P 5750 2750
F 0 "D24" H 5800 3000 50  0000 L CNN
F 1 "WS2812B-2020" H 5300 2500 50  0000 L CNN
F 2 "JLC:LED_WS2812B_2.0x2.0mm" H 5800 2450 50  0001 L TNN
F 3 "https://cdn-shop.adafruit.com/datasheets/WS2812B.pdf" H 5850 2375 50  0001 L TNN
	1    5750 2750
	1    0    0    -1  
$EndComp
$Comp
L JLC:WS2812B-2020 D25
U 1 1 5F2D17CA
P 1550 3450
F 0 "D25" H 1600 3700 50  0000 L CNN
F 1 "WS2812B-2020" H 1100 3200 50  0000 L CNN
F 2 "JLC:LED_WS2812B_2.0x2.0mm" H 1600 3150 50  0001 L TNN
F 3 "https://cdn-shop.adafruit.com/datasheets/WS2812B.pdf" H 1650 3075 50  0001 L TNN
	1    1550 3450
	1    0    0    -1  
$EndComp
$Comp
L JLC:WS2812B-2020 D26
U 1 1 5F2D17D0
P 2150 3450
F 0 "D26" H 2200 3700 50  0000 L CNN
F 1 "WS2812B-2020" H 1700 3200 50  0000 L CNN
F 2 "JLC:LED_WS2812B_2.0x2.0mm" H 2200 3150 50  0001 L TNN
F 3 "https://cdn-shop.adafruit.com/datasheets/WS2812B.pdf" H 2250 3075 50  0001 L TNN
	1    2150 3450
	1    0    0    -1  
$EndComp
$Comp
L JLC:WS2812B-2020 D27
U 1 1 5F2D17D6
P 2750 3450
F 0 "D27" H 2800 3700 50  0000 L CNN
F 1 "WS2812B-2020" H 2300 3200 50  0000 L CNN
F 2 "JLC:LED_WS2812B_2.0x2.0mm" H 2800 3150 50  0001 L TNN
F 3 "https://cdn-shop.adafruit.com/datasheets/WS2812B.pdf" H 2850 3075 50  0001 L TNN
	1    2750 3450
	1    0    0    -1  
$EndComp
$Comp
L JLC:WS2812B-2020 D28
U 1 1 5F2D17DC
P 3350 3450
F 0 "D28" H 3400 3700 50  0000 L CNN
F 1 "WS2812B-2020" H 2900 3200 50  0000 L CNN
F 2 "JLC:LED_WS2812B_2.0x2.0mm" H 3400 3150 50  0001 L TNN
F 3 "https://cdn-shop.adafruit.com/datasheets/WS2812B.pdf" H 3450 3075 50  0001 L TNN
	1    3350 3450
	1    0    0    -1  
$EndComp
$Comp
L JLC:WS2812B-2020 D29
U 1 1 5F2D17E2
P 3950 3450
F 0 "D29" H 4000 3700 50  0000 L CNN
F 1 "WS2812B-2020" H 3500 3200 50  0000 L CNN
F 2 "JLC:LED_WS2812B_2.0x2.0mm" H 4000 3150 50  0001 L TNN
F 3 "https://cdn-shop.adafruit.com/datasheets/WS2812B.pdf" H 4050 3075 50  0001 L TNN
	1    3950 3450
	1    0    0    -1  
$EndComp
$Comp
L JLC:WS2812B-2020 D30
U 1 1 5F2D17E8
P 4550 3450
F 0 "D30" H 4600 3700 50  0000 L CNN
F 1 "WS2812B-2020" H 4100 3200 50  0000 L CNN
F 2 "JLC:LED_WS2812B_2.0x2.0mm" H 4600 3150 50  0001 L TNN
F 3 "https://cdn-shop.adafruit.com/datasheets/WS2812B.pdf" H 4650 3075 50  0001 L TNN
	1    4550 3450
	1    0    0    -1  
$EndComp
$Comp
L JLC:WS2812B-2020 D31
U 1 1 5F2D17EE
P 5150 3450
F 0 "D31" H 5200 3700 50  0000 L CNN
F 1 "WS2812B-2020" H 4700 3200 50  0000 L CNN
F 2 "JLC:LED_WS2812B_2.0x2.0mm" H 5200 3150 50  0001 L TNN
F 3 "https://cdn-shop.adafruit.com/datasheets/WS2812B.pdf" H 5250 3075 50  0001 L TNN
	1    5150 3450
	1    0    0    -1  
$EndComp
$Comp
L JLC:WS2812B-2020 D32
U 1 1 5F2D17F4
P 5750 3450
F 0 "D32" H 5800 3700 50  0000 L CNN
F 1 "WS2812B-2020" H 5300 3200 50  0000 L CNN
F 2 "JLC:LED_WS2812B_2.0x2.0mm" H 5800 3150 50  0001 L TNN
F 3 "https://cdn-shop.adafruit.com/datasheets/WS2812B.pdf" H 5850 3075 50  0001 L TNN
	1    5750 3450
	1    0    0    -1  
$EndComp
$Comp
L JLC:WS2812B-2020 D33
U 1 1 5F2E225A
P 1550 4150
F 0 "D33" H 1600 4400 50  0000 L CNN
F 1 "WS2812B-2020" H 1100 3900 50  0000 L CNN
F 2 "JLC:LED_WS2812B_2.0x2.0mm" H 1600 3850 50  0001 L TNN
F 3 "https://cdn-shop.adafruit.com/datasheets/WS2812B.pdf" H 1650 3775 50  0001 L TNN
	1    1550 4150
	1    0    0    -1  
$EndComp
$Comp
L JLC:WS2812B-2020 D34
U 1 1 5F2E2260
P 2150 4150
F 0 "D34" H 2200 4400 50  0000 L CNN
F 1 "WS2812B-2020" H 1700 3900 50  0000 L CNN
F 2 "JLC:LED_WS2812B_2.0x2.0mm" H 2200 3850 50  0001 L TNN
F 3 "https://cdn-shop.adafruit.com/datasheets/WS2812B.pdf" H 2250 3775 50  0001 L TNN
	1    2150 4150
	1    0    0    -1  
$EndComp
$Comp
L JLC:WS2812B-2020 D35
U 1 1 5F2E2266
P 2750 4150
F 0 "D35" H 2800 4400 50  0000 L CNN
F 1 "WS2812B-2020" H 2300 3900 50  0000 L CNN
F 2 "JLC:LED_WS2812B_2.0x2.0mm" H 2800 3850 50  0001 L TNN
F 3 "https://cdn-shop.adafruit.com/datasheets/WS2812B.pdf" H 2850 3775 50  0001 L TNN
	1    2750 4150
	1    0    0    -1  
$EndComp
$Comp
L JLC:WS2812B-2020 D36
U 1 1 5F2E226C
P 3350 4150
F 0 "D36" H 3400 4400 50  0000 L CNN
F 1 "WS2812B-2020" H 2900 3900 50  0000 L CNN
F 2 "JLC:LED_WS2812B_2.0x2.0mm" H 3400 3850 50  0001 L TNN
F 3 "https://cdn-shop.adafruit.com/datasheets/WS2812B.pdf" H 3450 3775 50  0001 L TNN
	1    3350 4150
	1    0    0    -1  
$EndComp
$Comp
L JLC:WS2812B-2020 D37
U 1 1 5F2E2272
P 3950 4150
F 0 "D37" H 4000 4400 50  0000 L CNN
F 1 "WS2812B-2020" H 3500 3900 50  0000 L CNN
F 2 "JLC:LED_WS2812B_2.0x2.0mm" H 4000 3850 50  0001 L TNN
F 3 "https://cdn-shop.adafruit.com/datasheets/WS2812B.pdf" H 4050 3775 50  0001 L TNN
	1    3950 4150
	1    0    0    -1  
$EndComp
$Comp
L JLC:WS2812B-2020 D38
U 1 1 5F2E2278
P 4550 4150
F 0 "D38" H 4600 4400 50  0000 L CNN
F 1 "WS2812B-2020" H 4100 3900 50  0000 L CNN
F 2 "JLC:LED_WS2812B_2.0x2.0mm" H 4600 3850 50  0001 L TNN
F 3 "https://cdn-shop.adafruit.com/datasheets/WS2812B.pdf" H 4650 3775 50  0001 L TNN
	1    4550 4150
	1    0    0    -1  
$EndComp
$Comp
L JLC:WS2812B-2020 D39
U 1 1 5F2E227E
P 5150 4150
F 0 "D39" H 5200 4400 50  0000 L CNN
F 1 "WS2812B-2020" H 4700 3900 50  0000 L CNN
F 2 "JLC:LED_WS2812B_2.0x2.0mm" H 5200 3850 50  0001 L TNN
F 3 "https://cdn-shop.adafruit.com/datasheets/WS2812B.pdf" H 5250 3775 50  0001 L TNN
	1    5150 4150
	1    0    0    -1  
$EndComp
$Comp
L JLC:WS2812B-2020 D40
U 1 1 5F2E2284
P 5750 4150
F 0 "D40" H 5800 4400 50  0000 L CNN
F 1 "WS2812B-2020" H 5300 3900 50  0000 L CNN
F 2 "JLC:LED_WS2812B_2.0x2.0mm" H 5800 3850 50  0001 L TNN
F 3 "https://cdn-shop.adafruit.com/datasheets/WS2812B.pdf" H 5850 3775 50  0001 L TNN
	1    5750 4150
	1    0    0    -1  
$EndComp
$Comp
L JLC:WS2812B-2020 D41
U 1 1 5F2E228A
P 1550 4850
F 0 "D41" H 1600 5100 50  0000 L CNN
F 1 "WS2812B-2020" H 1100 4600 50  0000 L CNN
F 2 "JLC:LED_WS2812B_2.0x2.0mm" H 1600 4550 50  0001 L TNN
F 3 "https://cdn-shop.adafruit.com/datasheets/WS2812B.pdf" H 1650 4475 50  0001 L TNN
	1    1550 4850
	1    0    0    -1  
$EndComp
$Comp
L JLC:WS2812B-2020 D42
U 1 1 5F2E2290
P 2150 4850
F 0 "D42" H 2200 5100 50  0000 L CNN
F 1 "WS2812B-2020" H 1700 4600 50  0000 L CNN
F 2 "JLC:LED_WS2812B_2.0x2.0mm" H 2200 4550 50  0001 L TNN
F 3 "https://cdn-shop.adafruit.com/datasheets/WS2812B.pdf" H 2250 4475 50  0001 L TNN
	1    2150 4850
	1    0    0    -1  
$EndComp
$Comp
L JLC:WS2812B-2020 D43
U 1 1 5F2E2296
P 2750 4850
F 0 "D43" H 2800 5100 50  0000 L CNN
F 1 "WS2812B-2020" H 2300 4600 50  0000 L CNN
F 2 "JLC:LED_WS2812B_2.0x2.0mm" H 2800 4550 50  0001 L TNN
F 3 "https://cdn-shop.adafruit.com/datasheets/WS2812B.pdf" H 2850 4475 50  0001 L TNN
	1    2750 4850
	1    0    0    -1  
$EndComp
$Comp
L JLC:WS2812B-2020 D44
U 1 1 5F2E229C
P 3350 4850
F 0 "D44" H 3400 5100 50  0000 L CNN
F 1 "WS2812B-2020" H 2900 4600 50  0000 L CNN
F 2 "JLC:LED_WS2812B_2.0x2.0mm" H 3400 4550 50  0001 L TNN
F 3 "https://cdn-shop.adafruit.com/datasheets/WS2812B.pdf" H 3450 4475 50  0001 L TNN
	1    3350 4850
	1    0    0    -1  
$EndComp
$Comp
L JLC:WS2812B-2020 D45
U 1 1 5F2E22A2
P 3950 4850
F 0 "D45" H 4000 5100 50  0000 L CNN
F 1 "WS2812B-2020" H 3500 4600 50  0000 L CNN
F 2 "JLC:LED_WS2812B_2.0x2.0mm" H 4000 4550 50  0001 L TNN
F 3 "https://cdn-shop.adafruit.com/datasheets/WS2812B.pdf" H 4050 4475 50  0001 L TNN
	1    3950 4850
	1    0    0    -1  
$EndComp
$Comp
L JLC:WS2812B-2020 D46
U 1 1 5F2E22A8
P 4550 4850
F 0 "D46" H 4600 5100 50  0000 L CNN
F 1 "WS2812B-2020" H 4100 4600 50  0000 L CNN
F 2 "JLC:LED_WS2812B_2.0x2.0mm" H 4600 4550 50  0001 L TNN
F 3 "https://cdn-shop.adafruit.com/datasheets/WS2812B.pdf" H 4650 4475 50  0001 L TNN
	1    4550 4850
	1    0    0    -1  
$EndComp
$Comp
L JLC:WS2812B-2020 D47
U 1 1 5F2E22AE
P 5150 4850
F 0 "D47" H 5200 5100 50  0000 L CNN
F 1 "WS2812B-2020" H 4700 4600 50  0000 L CNN
F 2 "JLC:LED_WS2812B_2.0x2.0mm" H 5200 4550 50  0001 L TNN
F 3 "https://cdn-shop.adafruit.com/datasheets/WS2812B.pdf" H 5250 4475 50  0001 L TNN
	1    5150 4850
	1    0    0    -1  
$EndComp
$Comp
L JLC:WS2812B-2020 D48
U 1 1 5F2E22B4
P 5750 4850
F 0 "D48" H 5800 5100 50  0000 L CNN
F 1 "WS2812B-2020" H 5300 4600 50  0000 L CNN
F 2 "JLC:LED_WS2812B_2.0x2.0mm" H 5800 4550 50  0001 L TNN
F 3 "https://cdn-shop.adafruit.com/datasheets/WS2812B.pdf" H 5850 4475 50  0001 L TNN
	1    5750 4850
	1    0    0    -1  
$EndComp
$Comp
L JLC:WS2812B-2020 D49
U 1 1 5F2E22BA
P 1550 5550
F 0 "D49" H 1600 5800 50  0000 L CNN
F 1 "WS2812B-2020" H 1100 5300 50  0000 L CNN
F 2 "JLC:LED_WS2812B_2.0x2.0mm" H 1600 5250 50  0001 L TNN
F 3 "https://cdn-shop.adafruit.com/datasheets/WS2812B.pdf" H 1650 5175 50  0001 L TNN
	1    1550 5550
	1    0    0    -1  
$EndComp
$Comp
L JLC:WS2812B-2020 D50
U 1 1 5F2E22C0
P 2150 5550
F 0 "D50" H 2200 5800 50  0000 L CNN
F 1 "WS2812B-2020" H 1700 5300 50  0000 L CNN
F 2 "JLC:LED_WS2812B_2.0x2.0mm" H 2200 5250 50  0001 L TNN
F 3 "https://cdn-shop.adafruit.com/datasheets/WS2812B.pdf" H 2250 5175 50  0001 L TNN
	1    2150 5550
	1    0    0    -1  
$EndComp
$Comp
L JLC:WS2812B-2020 D51
U 1 1 5F2E22C6
P 2750 5550
F 0 "D51" H 2800 5800 50  0000 L CNN
F 1 "WS2812B-2020" H 2300 5300 50  0000 L CNN
F 2 "JLC:LED_WS2812B_2.0x2.0mm" H 2800 5250 50  0001 L TNN
F 3 "https://cdn-shop.adafruit.com/datasheets/WS2812B.pdf" H 2850 5175 50  0001 L TNN
	1    2750 5550
	1    0    0    -1  
$EndComp
$Comp
L JLC:WS2812B-2020 D52
U 1 1 5F2E22CC
P 3350 5550
F 0 "D52" H 3400 5800 50  0000 L CNN
F 1 "WS2812B-2020" H 2900 5300 50  0000 L CNN
F 2 "JLC:LED_WS2812B_2.0x2.0mm" H 3400 5250 50  0001 L TNN
F 3 "https://cdn-shop.adafruit.com/datasheets/WS2812B.pdf" H 3450 5175 50  0001 L TNN
	1    3350 5550
	1    0    0    -1  
$EndComp
$Comp
L JLC:WS2812B-2020 D53
U 1 1 5F2E22D2
P 3950 5550
F 0 "D53" H 4000 5800 50  0000 L CNN
F 1 "WS2812B-2020" H 3500 5300 50  0000 L CNN
F 2 "JLC:LED_WS2812B_2.0x2.0mm" H 4000 5250 50  0001 L TNN
F 3 "https://cdn-shop.adafruit.com/datasheets/WS2812B.pdf" H 4050 5175 50  0001 L TNN
	1    3950 5550
	1    0    0    -1  
$EndComp
$Comp
L JLC:WS2812B-2020 D54
U 1 1 5F2E22D8
P 4550 5550
F 0 "D54" H 4600 5800 50  0000 L CNN
F 1 "WS2812B-2020" H 4100 5300 50  0000 L CNN
F 2 "JLC:LED_WS2812B_2.0x2.0mm" H 4600 5250 50  0001 L TNN
F 3 "https://cdn-shop.adafruit.com/datasheets/WS2812B.pdf" H 4650 5175 50  0001 L TNN
	1    4550 5550
	1    0    0    -1  
$EndComp
$Comp
L JLC:WS2812B-2020 D55
U 1 1 5F2E22DE
P 5150 5550
F 0 "D55" H 5200 5800 50  0000 L CNN
F 1 "WS2812B-2020" H 4700 5300 50  0000 L CNN
F 2 "JLC:LED_WS2812B_2.0x2.0mm" H 5200 5250 50  0001 L TNN
F 3 "https://cdn-shop.adafruit.com/datasheets/WS2812B.pdf" H 5250 5175 50  0001 L TNN
	1    5150 5550
	1    0    0    -1  
$EndComp
$Comp
L JLC:WS2812B-2020 D56
U 1 1 5F2E22E4
P 5750 5550
F 0 "D56" H 5800 5800 50  0000 L CNN
F 1 "WS2812B-2020" H 5300 5300 50  0000 L CNN
F 2 "JLC:LED_WS2812B_2.0x2.0mm" H 5800 5250 50  0001 L TNN
F 3 "https://cdn-shop.adafruit.com/datasheets/WS2812B.pdf" H 5850 5175 50  0001 L TNN
	1    5750 5550
	1    0    0    -1  
$EndComp
$Comp
L JLC:WS2812B-2020 D57
U 1 1 5F2E22EA
P 1550 6250
F 0 "D57" H 1600 6500 50  0000 L CNN
F 1 "WS2812B-2020" H 1100 6000 50  0000 L CNN
F 2 "JLC:LED_WS2812B_2.0x2.0mm" H 1600 5950 50  0001 L TNN
F 3 "https://cdn-shop.adafruit.com/datasheets/WS2812B.pdf" H 1650 5875 50  0001 L TNN
	1    1550 6250
	1    0    0    -1  
$EndComp
$Comp
L JLC:WS2812B-2020 D58
U 1 1 5F2E22F0
P 2150 6250
F 0 "D58" H 2200 6500 50  0000 L CNN
F 1 "WS2812B-2020" H 1700 6000 50  0000 L CNN
F 2 "JLC:LED_WS2812B_2.0x2.0mm" H 2200 5950 50  0001 L TNN
F 3 "https://cdn-shop.adafruit.com/datasheets/WS2812B.pdf" H 2250 5875 50  0001 L TNN
	1    2150 6250
	1    0    0    -1  
$EndComp
$Comp
L JLC:WS2812B-2020 D59
U 1 1 5F2E22F6
P 2750 6250
F 0 "D59" H 2800 6500 50  0000 L CNN
F 1 "WS2812B-2020" H 2300 6000 50  0000 L CNN
F 2 "JLC:LED_WS2812B_2.0x2.0mm" H 2800 5950 50  0001 L TNN
F 3 "https://cdn-shop.adafruit.com/datasheets/WS2812B.pdf" H 2850 5875 50  0001 L TNN
	1    2750 6250
	1    0    0    -1  
$EndComp
$Comp
L JLC:WS2812B-2020 D60
U 1 1 5F2E22FC
P 3350 6250
F 0 "D60" H 3400 6500 50  0000 L CNN
F 1 "WS2812B-2020" H 2900 6000 50  0000 L CNN
F 2 "JLC:LED_WS2812B_2.0x2.0mm" H 3400 5950 50  0001 L TNN
F 3 "https://cdn-shop.adafruit.com/datasheets/WS2812B.pdf" H 3450 5875 50  0001 L TNN
	1    3350 6250
	1    0    0    -1  
$EndComp
$Comp
L JLC:WS2812B-2020 D61
U 1 1 5F2E2302
P 3950 6250
F 0 "D61" H 4000 6500 50  0000 L CNN
F 1 "WS2812B-2020" H 3500 6000 50  0000 L CNN
F 2 "JLC:LED_WS2812B_2.0x2.0mm" H 4000 5950 50  0001 L TNN
F 3 "https://cdn-shop.adafruit.com/datasheets/WS2812B.pdf" H 4050 5875 50  0001 L TNN
	1    3950 6250
	1    0    0    -1  
$EndComp
$Comp
L JLC:WS2812B-2020 D62
U 1 1 5F2E2308
P 4550 6250
F 0 "D62" H 4600 6500 50  0000 L CNN
F 1 "WS2812B-2020" H 4100 6000 50  0000 L CNN
F 2 "JLC:LED_WS2812B_2.0x2.0mm" H 4600 5950 50  0001 L TNN
F 3 "https://cdn-shop.adafruit.com/datasheets/WS2812B.pdf" H 4650 5875 50  0001 L TNN
	1    4550 6250
	1    0    0    -1  
$EndComp
$Comp
L JLC:WS2812B-2020 D63
U 1 1 5F2E230E
P 5150 6250
F 0 "D63" H 5200 6500 50  0000 L CNN
F 1 "WS2812B-2020" H 4700 6000 50  0000 L CNN
F 2 "JLC:LED_WS2812B_2.0x2.0mm" H 5200 5950 50  0001 L TNN
F 3 "https://cdn-shop.adafruit.com/datasheets/WS2812B.pdf" H 5250 5875 50  0001 L TNN
	1    5150 6250
	1    0    0    -1  
$EndComp
$Comp
L JLC:WS2812B-2020 D64
U 1 1 5F2E2314
P 5750 6250
F 0 "D64" H 5800 6500 50  0000 L CNN
F 1 "WS2812B-2020" H 5300 6000 50  0000 L CNN
F 2 "JLC:LED_WS2812B_2.0x2.0mm" H 5800 5950 50  0001 L TNN
F 3 "https://cdn-shop.adafruit.com/datasheets/WS2812B.pdf" H 5850 5875 50  0001 L TNN
	1    5750 6250
	1    0    0    -1  
$EndComp
Wire Wire Line
	5750 1050 5150 1050
Connection ~ 2150 1050
Wire Wire Line
	2150 1050 1550 1050
Connection ~ 2750 1050
Wire Wire Line
	2750 1050 2150 1050
Connection ~ 3350 1050
Wire Wire Line
	3350 1050 2750 1050
Connection ~ 3950 1050
Wire Wire Line
	3950 1050 3350 1050
Connection ~ 4550 1050
Wire Wire Line
	4550 1050 3950 1050
Connection ~ 5150 1050
Wire Wire Line
	5150 1050 4550 1050
Wire Wire Line
	1550 1650 2150 1650
Connection ~ 2150 1650
Wire Wire Line
	2150 1650 2750 1650
Connection ~ 2750 1650
Wire Wire Line
	2750 1650 3350 1650
Connection ~ 3350 1650
Wire Wire Line
	3350 1650 3950 1650
Connection ~ 3950 1650
Wire Wire Line
	3950 1650 4550 1650
Connection ~ 4550 1650
Wire Wire Line
	4550 1650 5150 1650
Connection ~ 5150 1650
Wire Wire Line
	5150 1650 5750 1650
Wire Wire Line
	6050 1350 6050 1700
Wire Wire Line
	6050 1700 1250 1700
Wire Wire Line
	1250 1700 1250 2050
Wire Wire Line
	6050 2050 6050 2400
Wire Wire Line
	6050 2400 1250 2400
Wire Wire Line
	1250 2400 1250 2750
Wire Wire Line
	6050 2750 6050 3100
Wire Wire Line
	6050 3100 1250 3100
Wire Wire Line
	1250 3100 1250 3450
Wire Wire Line
	6050 3450 6050 3800
Wire Wire Line
	6050 3800 1250 3800
Wire Wire Line
	1250 3800 1250 4150
Wire Wire Line
	6050 4150 6050 4500
Wire Wire Line
	6050 4500 1250 4500
Wire Wire Line
	1250 4500 1250 4850
Wire Wire Line
	6050 4850 6050 5200
Wire Wire Line
	6050 5200 1250 5200
Wire Wire Line
	1250 5200 1250 5550
Wire Wire Line
	6050 5550 6050 5900
Wire Wire Line
	6050 5900 1250 5900
Wire Wire Line
	1250 5900 1250 6250
Wire Wire Line
	1550 1750 2150 1750
Connection ~ 2150 1750
Wire Wire Line
	2150 1750 2750 1750
Connection ~ 2750 1750
Wire Wire Line
	2750 1750 3350 1750
Connection ~ 3350 1750
Wire Wire Line
	3350 1750 3950 1750
Connection ~ 3950 1750
Wire Wire Line
	3950 1750 4550 1750
Connection ~ 4550 1750
Wire Wire Line
	4550 1750 5150 1750
Connection ~ 5150 1750
Wire Wire Line
	5150 1750 5750 1750
Wire Wire Line
	5750 2350 5150 2350
Connection ~ 2150 2350
Wire Wire Line
	2150 2350 1550 2350
Connection ~ 2750 2350
Wire Wire Line
	2750 2350 2150 2350
Connection ~ 3350 2350
Wire Wire Line
	3350 2350 2750 2350
Connection ~ 3950 2350
Wire Wire Line
	3950 2350 3350 2350
Connection ~ 4550 2350
Wire Wire Line
	4550 2350 3950 2350
Connection ~ 5150 2350
Wire Wire Line
	5150 2350 4550 2350
Wire Wire Line
	1550 2450 2150 2450
Connection ~ 2150 2450
Wire Wire Line
	2150 2450 2750 2450
Connection ~ 2750 2450
Wire Wire Line
	2750 2450 3350 2450
Connection ~ 3350 2450
Wire Wire Line
	3350 2450 3950 2450
Connection ~ 3950 2450
Wire Wire Line
	3950 2450 4550 2450
Connection ~ 4550 2450
Wire Wire Line
	4550 2450 5150 2450
Connection ~ 5150 2450
Wire Wire Line
	5150 2450 5750 2450
Wire Wire Line
	5750 3050 5150 3050
Connection ~ 2150 3050
Wire Wire Line
	2150 3050 1550 3050
Connection ~ 2750 3050
Wire Wire Line
	2750 3050 2150 3050
Connection ~ 3350 3050
Wire Wire Line
	3350 3050 2750 3050
Connection ~ 3950 3050
Wire Wire Line
	3950 3050 3350 3050
Connection ~ 4550 3050
Wire Wire Line
	4550 3050 3950 3050
Connection ~ 5150 3050
Wire Wire Line
	5150 3050 4550 3050
Wire Wire Line
	1550 3150 2150 3150
Connection ~ 2150 3150
Wire Wire Line
	2150 3150 2750 3150
Connection ~ 2750 3150
Wire Wire Line
	2750 3150 3350 3150
Connection ~ 3350 3150
Wire Wire Line
	3350 3150 3950 3150
Connection ~ 3950 3150
Wire Wire Line
	3950 3150 4550 3150
Connection ~ 4550 3150
Wire Wire Line
	4550 3150 5150 3150
Connection ~ 5150 3150
Wire Wire Line
	5150 3150 5750 3150
Wire Wire Line
	5750 3750 5150 3750
Connection ~ 2150 3750
Wire Wire Line
	2150 3750 1550 3750
Connection ~ 2750 3750
Wire Wire Line
	2750 3750 2150 3750
Connection ~ 3350 3750
Wire Wire Line
	3350 3750 2750 3750
Connection ~ 3950 3750
Wire Wire Line
	3950 3750 3350 3750
Connection ~ 4550 3750
Wire Wire Line
	4550 3750 3950 3750
Connection ~ 5150 3750
Wire Wire Line
	5150 3750 4550 3750
Wire Wire Line
	1550 3850 2150 3850
Connection ~ 2150 3850
Wire Wire Line
	2150 3850 2750 3850
Connection ~ 2750 3850
Wire Wire Line
	2750 3850 3350 3850
Connection ~ 3350 3850
Wire Wire Line
	3350 3850 3950 3850
Connection ~ 3950 3850
Wire Wire Line
	3950 3850 4550 3850
Connection ~ 4550 3850
Wire Wire Line
	4550 3850 5150 3850
Connection ~ 5150 3850
Wire Wire Line
	5150 3850 5750 3850
Wire Wire Line
	5750 4450 5150 4450
Connection ~ 2150 4450
Wire Wire Line
	2150 4450 1550 4450
Connection ~ 2750 4450
Wire Wire Line
	2750 4450 2150 4450
Connection ~ 3350 4450
Wire Wire Line
	3350 4450 2750 4450
Connection ~ 3950 4450
Wire Wire Line
	3950 4450 3350 4450
Connection ~ 4550 4450
Wire Wire Line
	4550 4450 3950 4450
Connection ~ 5150 4450
Wire Wire Line
	5150 4450 4550 4450
Wire Wire Line
	5750 4550 5150 4550
Connection ~ 2150 4550
Wire Wire Line
	2150 4550 1550 4550
Connection ~ 2750 4550
Wire Wire Line
	2750 4550 2150 4550
Connection ~ 3350 4550
Wire Wire Line
	3350 4550 2750 4550
Connection ~ 3950 4550
Wire Wire Line
	3950 4550 3350 4550
Connection ~ 4550 4550
Wire Wire Line
	4550 4550 3950 4550
Connection ~ 5150 4550
Wire Wire Line
	5150 4550 4550 4550
Wire Wire Line
	1550 5150 2150 5150
Connection ~ 2150 5150
Wire Wire Line
	2150 5150 2750 5150
Connection ~ 2750 5150
Wire Wire Line
	2750 5150 3350 5150
Connection ~ 3350 5150
Wire Wire Line
	3350 5150 3950 5150
Connection ~ 3950 5150
Wire Wire Line
	3950 5150 4550 5150
Connection ~ 4550 5150
Wire Wire Line
	4550 5150 5150 5150
Connection ~ 5150 5150
Wire Wire Line
	5150 5150 5750 5150
Wire Wire Line
	5750 5250 5150 5250
Connection ~ 2150 5250
Wire Wire Line
	2150 5250 1550 5250
Connection ~ 2750 5250
Wire Wire Line
	2750 5250 2150 5250
Connection ~ 3350 5250
Wire Wire Line
	3350 5250 2750 5250
Connection ~ 3950 5250
Wire Wire Line
	3950 5250 3350 5250
Connection ~ 4550 5250
Wire Wire Line
	4550 5250 3950 5250
Connection ~ 5150 5250
Wire Wire Line
	5150 5250 4550 5250
Wire Wire Line
	1550 5850 2150 5850
Connection ~ 2150 5850
Wire Wire Line
	2150 5850 2750 5850
Connection ~ 2750 5850
Wire Wire Line
	2750 5850 3350 5850
Connection ~ 3350 5850
Wire Wire Line
	3350 5850 3950 5850
Connection ~ 3950 5850
Wire Wire Line
	3950 5850 4550 5850
Connection ~ 4550 5850
Wire Wire Line
	4550 5850 5150 5850
Connection ~ 5150 5850
Wire Wire Line
	5150 5850 5750 5850
Wire Wire Line
	5750 5950 5150 5950
Connection ~ 2150 5950
Wire Wire Line
	2150 5950 1550 5950
Connection ~ 2750 5950
Wire Wire Line
	2750 5950 2150 5950
Connection ~ 3350 5950
Wire Wire Line
	3350 5950 2750 5950
Connection ~ 3950 5950
Wire Wire Line
	3950 5950 3350 5950
Connection ~ 4550 5950
Wire Wire Line
	4550 5950 3950 5950
Connection ~ 5150 5950
Wire Wire Line
	5150 5950 4550 5950
Wire Wire Line
	1550 6550 2150 6550
Connection ~ 2150 6550
Wire Wire Line
	2150 6550 2750 6550
Connection ~ 2750 6550
Wire Wire Line
	2750 6550 3350 6550
Connection ~ 3350 6550
Wire Wire Line
	3350 6550 3950 6550
Connection ~ 3950 6550
Wire Wire Line
	3950 6550 4550 6550
Connection ~ 4550 6550
Wire Wire Line
	4550 6550 5150 6550
Connection ~ 5150 6550
Wire Wire Line
	5150 6550 5750 6550
$Comp
L power:GND #PWR05
U 1 1 5F31EF22
P 1550 1650
F 0 "#PWR05" H 1550 1400 50  0001 C CNN
F 1 "GND" V 1555 1522 50  0000 R CNN
F 2 "" H 1550 1650 50  0001 C CNN
F 3 "" H 1550 1650 50  0001 C CNN
	1    1550 1650
	0    1    1    0   
$EndComp
$Comp
L power:GND #PWR011
U 1 1 5F3264CD
P 1550 2350
F 0 "#PWR011" H 1550 2100 50  0001 C CNN
F 1 "GND" V 1555 2222 50  0000 R CNN
F 2 "" H 1550 2350 50  0001 C CNN
F 3 "" H 1550 2350 50  0001 C CNN
	1    1550 2350
	0    1    1    0   
$EndComp
$Comp
L power:GND #PWR016
U 1 1 5F32DCDC
P 1550 3050
F 0 "#PWR016" H 1550 2800 50  0001 C CNN
F 1 "GND" V 1555 2922 50  0000 R CNN
F 2 "" H 1550 3050 50  0001 C CNN
F 3 "" H 1550 3050 50  0001 C CNN
	1    1550 3050
	0    1    1    0   
$EndComp
$Comp
L power:GND #PWR018
U 1 1 5F3353A8
P 1550 3750
F 0 "#PWR018" H 1550 3500 50  0001 C CNN
F 1 "GND" V 1555 3622 50  0000 R CNN
F 2 "" H 1550 3750 50  0001 C CNN
F 3 "" H 1550 3750 50  0001 C CNN
	1    1550 3750
	0    1    1    0   
$EndComp
$Comp
L power:GND #PWR020
U 1 1 5F33CA1F
P 1550 4450
F 0 "#PWR020" H 1550 4200 50  0001 C CNN
F 1 "GND" V 1555 4322 50  0000 R CNN
F 2 "" H 1550 4450 50  0001 C CNN
F 3 "" H 1550 4450 50  0001 C CNN
	1    1550 4450
	0    1    1    0   
$EndComp
$Comp
L power:GND #PWR022
U 1 1 5F34410D
P 1550 5150
F 0 "#PWR022" H 1550 4900 50  0001 C CNN
F 1 "GND" V 1555 5022 50  0000 R CNN
F 2 "" H 1550 5150 50  0001 C CNN
F 3 "" H 1550 5150 50  0001 C CNN
	1    1550 5150
	0    1    1    0   
$EndComp
$Comp
L power:GND #PWR024
U 1 1 5F34B883
P 1550 5850
F 0 "#PWR024" H 1550 5600 50  0001 C CNN
F 1 "GND" V 1555 5722 50  0000 R CNN
F 2 "" H 1550 5850 50  0001 C CNN
F 3 "" H 1550 5850 50  0001 C CNN
	1    1550 5850
	0    1    1    0   
$EndComp
$Comp
L power:GND #PWR026
U 1 1 5F35AE62
P 1550 6550
F 0 "#PWR026" H 1550 6300 50  0001 C CNN
F 1 "GND" V 1555 6422 50  0000 R CNN
F 2 "" H 1550 6550 50  0001 C CNN
F 3 "" H 1550 6550 50  0001 C CNN
	1    1550 6550
	0    1    1    0   
$EndComp
$Comp
L power:+5V #PWR01
U 1 1 5F36344E
P 1550 1050
F 0 "#PWR01" H 1550 900 50  0001 C CNN
F 1 "+5V" V 1565 1178 50  0000 L CNN
F 2 "" H 1550 1050 50  0001 C CNN
F 3 "" H 1550 1050 50  0001 C CNN
	1    1550 1050
	0    -1   -1   0   
$EndComp
$Comp
L power:+5V #PWR06
U 1 1 5F36AAEA
P 1550 1750
F 0 "#PWR06" H 1550 1600 50  0001 C CNN
F 1 "+5V" V 1565 1878 50  0000 L CNN
F 2 "" H 1550 1750 50  0001 C CNN
F 3 "" H 1550 1750 50  0001 C CNN
	1    1550 1750
	0    -1   -1   0   
$EndComp
$Comp
L power:+5V #PWR012
U 1 1 5F37215C
P 1550 2450
F 0 "#PWR012" H 1550 2300 50  0001 C CNN
F 1 "+5V" V 1565 2578 50  0000 L CNN
F 2 "" H 1550 2450 50  0001 C CNN
F 3 "" H 1550 2450 50  0001 C CNN
	1    1550 2450
	0    -1   -1   0   
$EndComp
$Comp
L power:+5V #PWR017
U 1 1 5F3797B9
P 1550 3150
F 0 "#PWR017" H 1550 3000 50  0001 C CNN
F 1 "+5V" V 1565 3278 50  0000 L CNN
F 2 "" H 1550 3150 50  0001 C CNN
F 3 "" H 1550 3150 50  0001 C CNN
	1    1550 3150
	0    -1   -1   0   
$EndComp
$Comp
L power:+5V #PWR019
U 1 1 5F380F12
P 1550 3850
F 0 "#PWR019" H 1550 3700 50  0001 C CNN
F 1 "+5V" V 1565 3978 50  0000 L CNN
F 2 "" H 1550 3850 50  0001 C CNN
F 3 "" H 1550 3850 50  0001 C CNN
	1    1550 3850
	0    -1   -1   0   
$EndComp
$Comp
L power:+5V #PWR021
U 1 1 5F388584
P 1550 4550
F 0 "#PWR021" H 1550 4400 50  0001 C CNN
F 1 "+5V" V 1565 4678 50  0000 L CNN
F 2 "" H 1550 4550 50  0001 C CNN
F 3 "" H 1550 4550 50  0001 C CNN
	1    1550 4550
	0    -1   -1   0   
$EndComp
$Comp
L power:+5V #PWR023
U 1 1 5F38FCDD
P 1550 5250
F 0 "#PWR023" H 1550 5100 50  0001 C CNN
F 1 "+5V" V 1565 5378 50  0000 L CNN
F 2 "" H 1550 5250 50  0001 C CNN
F 3 "" H 1550 5250 50  0001 C CNN
	1    1550 5250
	0    -1   -1   0   
$EndComp
$Comp
L power:+5V #PWR025
U 1 1 5F3974B4
P 1550 5950
F 0 "#PWR025" H 1550 5800 50  0001 C CNN
F 1 "+5V" V 1565 6078 50  0000 L CNN
F 2 "" H 1550 5950 50  0001 C CNN
F 3 "" H 1550 5950 50  0001 C CNN
	1    1550 5950
	0    -1   -1   0   
$EndComp
Text Label 1100 1350 0    50   ~ 0
DIN
Text Label 6050 6250 0    50   ~ 0
DOUT
Wire Wire Line
	1250 1350 1100 1350
$Comp
L power:GND #PWR014
U 1 1 5F51CEA3
P 8350 2700
F 0 "#PWR014" H 8350 2450 50  0001 C CNN
F 1 "GND" V 8355 2572 50  0000 R CNN
F 2 "" H 8350 2700 50  0001 C CNN
F 3 "" H 8350 2700 50  0001 C CNN
	1    8350 2700
	1    0    0    -1  
$EndComp
Text Label 8150 2850 1    50   ~ 0
DIN
Wire Wire Line
	8150 2700 8150 2850
Text Label 8250 2850 1    50   ~ 0
DOUT
$Comp
L power:+5V #PWR015
U 1 1 5F51CEA9
P 8450 2700
F 0 "#PWR015" H 8450 2550 50  0001 C CNN
F 1 "+5V" V 8465 2828 50  0000 L CNN
F 2 "" H 8450 2700 50  0001 C CNN
F 3 "" H 8450 2700 50  0001 C CNN
	1    8450 2700
	-1   0    0    1   
$EndComp
$Comp
L Device:C C1
U 1 1 606DBA2A
P 10200 1600
F 0 "C1" V 10150 1450 50  0000 C CNN
F 1 "104" V 10150 1750 50  0000 C CNN
F 2 "Capacitor_SMD:C_0603_1608Metric" H 10238 1450 50  0001 C CNN
F 3 "~" H 10200 1600 50  0001 C CNN
	1    10200 1600
	0    1    1    0   
$EndComp
$Comp
L Device:C C2
U 1 1 607035F2
P 10200 1850
F 0 "C2" V 10150 1700 50  0000 C CNN
F 1 "104" V 10150 2000 50  0000 C CNN
F 2 "Capacitor_SMD:C_0603_1608Metric" H 10238 1700 50  0001 C CNN
F 3 "~" H 10200 1850 50  0001 C CNN
	1    10200 1850
	0    1    1    0   
$EndComp
$Comp
L Device:C C3
U 1 1 6070CCAD
P 10200 2100
F 0 "C3" V 10150 1950 50  0000 C CNN
F 1 "104" V 10150 2250 50  0000 C CNN
F 2 "Capacitor_SMD:C_0603_1608Metric" H 10238 1950 50  0001 C CNN
F 3 "~" H 10200 2100 50  0001 C CNN
	1    10200 2100
	0    1    1    0   
$EndComp
$Comp
L Device:C C4
U 1 1 60715652
P 10200 2350
F 0 "C4" V 10150 2200 50  0000 C CNN
F 1 "104" V 10150 2500 50  0000 C CNN
F 2 "Capacitor_SMD:C_0603_1608Metric" H 10238 2200 50  0001 C CNN
F 3 "~" H 10200 2350 50  0001 C CNN
	1    10200 2350
	0    1    1    0   
$EndComp
Wire Wire Line
	10050 1600 10050 1850
Connection ~ 10050 1850
Wire Wire Line
	10050 1850 10050 2100
Connection ~ 10050 2100
Wire Wire Line
	10050 2100 10050 2350
Connection ~ 10350 1600
Wire Wire Line
	10350 1600 10350 1400
Connection ~ 10350 1850
Wire Wire Line
	10350 1850 10350 1600
Connection ~ 10350 2100
Wire Wire Line
	10350 2100 10350 1850
Wire Wire Line
	10350 2350 10350 2100
$Comp
L power:GND #PWR013
U 1 1 6080D75D
P 10050 2600
F 0 "#PWR013" H 10050 2350 50  0001 C CNN
F 1 "GND" V 10055 2472 50  0000 R CNN
F 2 "" H 10050 2600 50  0001 C CNN
F 3 "" H 10050 2600 50  0001 C CNN
	1    10050 2600
	1    0    0    -1  
$EndComp
$Comp
L power:+5V #PWR04
U 1 1 6080EB66
P 10350 1400
F 0 "#PWR04" H 10350 1250 50  0001 C CNN
F 1 "+5V" V 10365 1528 50  0000 L CNN
F 2 "" H 10350 1400 50  0001 C CNN
F 3 "" H 10350 1400 50  0001 C CNN
	1    10350 1400
	1    0    0    -1  
$EndComp
Wire Wire Line
	8250 2700 8250 2850
Text Label 9100 2100 2    50   ~ 0
DOUT
Wire Wire Line
	8950 2100 9100 2100
Wire Wire Line
	8950 2200 9100 2200
Text Label 9100 2200 2    50   ~ 0
DIN
$Comp
L power:+5V #PWR08
U 1 1 5F50959D
P 8950 1900
F 0 "#PWR08" H 8950 1750 50  0001 C CNN
F 1 "+5V" V 8965 2028 50  0000 L CNN
F 2 "" H 8950 1900 50  0001 C CNN
F 3 "" H 8950 1900 50  0001 C CNN
	1    8950 1900
	0    1    1    0   
$EndComp
$Comp
L power:GND #PWR010
U 1 1 5F509597
P 8950 2000
F 0 "#PWR010" H 8950 1750 50  0001 C CNN
F 1 "GND" V 8955 1872 50  0000 R CNN
F 2 "" H 8950 2000 50  0001 C CNN
F 3 "" H 8950 2000 50  0001 C CNN
	1    8950 2000
	0    -1   -1   0   
$EndComp
Text Label 7500 2200 0    50   ~ 0
DOUT
Wire Wire Line
	7650 2200 7500 2200
Wire Wire Line
	7650 2100 7500 2100
Text Label 7500 2100 0    50   ~ 0
DIN
$Comp
L power:+5V #PWR07
U 1 1 5F4DC40B
P 7650 1900
F 0 "#PWR07" H 7650 1750 50  0001 C CNN
F 1 "+5V" V 7665 2028 50  0000 L CNN
F 2 "" H 7650 1900 50  0001 C CNN
F 3 "" H 7650 1900 50  0001 C CNN
	1    7650 1900
	0    -1   -1   0   
$EndComp
$Comp
L power:GND #PWR09
U 1 1 5F4DC405
P 7650 2000
F 0 "#PWR09" H 7650 1750 50  0001 C CNN
F 1 "GND" V 7655 1872 50  0000 R CNN
F 2 "" H 7650 2000 50  0001 C CNN
F 3 "" H 7650 2000 50  0001 C CNN
	1    7650 2000
	0    1    1    0   
$EndComp
Text Label 8150 1250 3    50   ~ 0
DOUT
Wire Wire Line
	8150 1400 8150 1250
Wire Wire Line
	8250 1400 8250 1250
Text Label 8250 1250 3    50   ~ 0
DIN
$Comp
L power:+5V #PWR03
U 1 1 5F362CD5
P 8450 1400
F 0 "#PWR03" H 8450 1250 50  0001 C CNN
F 1 "+5V" V 8465 1528 50  0000 L CNN
F 2 "" H 8450 1400 50  0001 C CNN
F 3 "" H 8450 1400 50  0001 C CNN
	1    8450 1400
	1    0    0    -1  
$EndComp
$Comp
L power:GND #PWR02
U 1 1 5F31E529
P 8350 1400
F 0 "#PWR02" H 8350 1150 50  0001 C CNN
F 1 "GND" V 8355 1272 50  0000 R CNN
F 2 "" H 8350 1400 50  0001 C CNN
F 3 "" H 8350 1400 50  0001 C CNN
	1    8350 1400
	-1   0    0    1   
$EndComp
Wire Wire Line
	10050 2600 10050 2350
Connection ~ 10050 2350
$Comp
L Connector_Generic:Conn_01x01 J5
U 1 1 6075F32A
P 7850 1900
F 0 "J5" H 7930 1942 50  0000 L CNN
F 1 "VCC" H 7930 1851 50  0000 L CNN
F 2 "My_Library:SolderPad_1Pin_P2.54_VCC" H 7850 1900 50  0001 C CNN
F 3 "~" H 7850 1900 50  0001 C CNN
	1    7850 1900
	1    0    0    -1  
$EndComp
$Comp
L Connector_Generic:Conn_01x01 J7
U 1 1 6076B5CF
P 7850 2000
F 0 "J7" H 7930 2042 50  0000 L CNN
F 1 "GND" H 7930 1951 50  0000 L CNN
F 2 "My_Library:SolderPad_1Pin_P2.54_GND" H 7850 2000 50  0001 C CNN
F 3 "~" H 7850 2000 50  0001 C CNN
	1    7850 2000
	1    0    0    -1  
$EndComp
$Comp
L Connector_Generic:Conn_01x01 J9
U 1 1 6076BA9E
P 7850 2100
F 0 "J9" H 7930 2142 50  0000 L CNN
F 1 "IN" H 7930 2051 50  0000 L CNN
F 2 "My_Library:SolderPad_1Pin_P2.54_IN" H 7850 2100 50  0001 C CNN
F 3 "~" H 7850 2100 50  0001 C CNN
	1    7850 2100
	1    0    0    -1  
$EndComp
$Comp
L Connector_Generic:Conn_01x01 J11
U 1 1 6076BDAC
P 7850 2200
F 0 "J11" H 7930 2242 50  0000 L CNN
F 1 "OUT" H 7930 2151 50  0000 L CNN
F 2 "My_Library:SolderPad_1Pin_P2.54_OUT" H 7850 2200 50  0001 C CNN
F 3 "~" H 7850 2200 50  0001 C CNN
	1    7850 2200
	1    0    0    -1  
$EndComp
$Comp
L Connector_Generic:Conn_01x01 J6
U 1 1 6077FD7A
P 8750 1900
F 0 "J6" H 8830 1942 50  0000 L CNN
F 1 "VCC" H 8830 1851 50  0000 L CNN
F 2 "My_Library:SolderPad_1Pin_P2.54_VCC" H 8750 1900 50  0001 C CNN
F 3 "~" H 8750 1900 50  0001 C CNN
	1    8750 1900
	-1   0    0    -1  
$EndComp
$Comp
L Connector_Generic:Conn_01x01 J8
U 1 1 6077FD80
P 8750 2000
F 0 "J8" H 8830 2042 50  0000 L CNN
F 1 "GND" H 8830 1951 50  0000 L CNN
F 2 "My_Library:SolderPad_1Pin_P2.54_GND" H 8750 2000 50  0001 C CNN
F 3 "~" H 8750 2000 50  0001 C CNN
	1    8750 2000
	-1   0    0    -1  
$EndComp
$Comp
L Connector_Generic:Conn_01x01 J12
U 1 1 6077FD86
P 8750 2200
F 0 "J12" H 8830 2242 50  0000 L CNN
F 1 "IN" H 8830 2151 50  0000 L CNN
F 2 "My_Library:SolderPad_1Pin_P2.54_IN" H 8750 2200 50  0001 C CNN
F 3 "~" H 8750 2200 50  0001 C CNN
	1    8750 2200
	-1   0    0    -1  
$EndComp
$Comp
L Connector_Generic:Conn_01x01 J10
U 1 1 6077FD8C
P 8750 2100
F 0 "J10" H 8830 2142 50  0000 L CNN
F 1 "OUT" H 8830 2051 50  0000 L CNN
F 2 "My_Library:SolderPad_1Pin_P2.54_OUT" H 8750 2100 50  0001 C CNN
F 3 "~" H 8750 2100 50  0001 C CNN
	1    8750 2100
	-1   0    0    -1  
$EndComp
$Comp
L Connector_Generic:Conn_01x01 J4
U 1 1 6078D8F3
P 8450 1600
F 0 "J4" H 8530 1642 50  0000 L CNN
F 1 "VCC" H 8530 1551 50  0000 L CNN
F 2 "My_Library:SolderPad_1Pin_P2.54_VCC" H 8450 1600 50  0001 C CNN
F 3 "~" H 8450 1600 50  0001 C CNN
	1    8450 1600
	0    1    1    0   
$EndComp
$Comp
L Connector_Generic:Conn_01x01 J3
U 1 1 6078D8F9
P 8350 1600
F 0 "J3" H 8430 1642 50  0000 L CNN
F 1 "GND" H 8430 1551 50  0000 L CNN
F 2 "My_Library:SolderPad_1Pin_P2.54_GND" H 8350 1600 50  0001 C CNN
F 3 "~" H 8350 1600 50  0001 C CNN
	1    8350 1600
	0    1    1    0   
$EndComp
$Comp
L Connector_Generic:Conn_01x01 J2
U 1 1 6078D8FF
P 8250 1600
F 0 "J2" H 8330 1642 50  0000 L CNN
F 1 "IN" H 8330 1551 50  0000 L CNN
F 2 "My_Library:SolderPad_1Pin_P2.54_IN" H 8250 1600 50  0001 C CNN
F 3 "~" H 8250 1600 50  0001 C CNN
	1    8250 1600
	0    1    1    0   
$EndComp
$Comp
L Connector_Generic:Conn_01x01 J1
U 1 1 6078D905
P 8150 1600
F 0 "J1" H 8230 1642 50  0000 L CNN
F 1 "OUT" H 8230 1551 50  0000 L CNN
F 2 "My_Library:SolderPad_1Pin_P2.54_OUT" H 8150 1600 50  0001 C CNN
F 3 "~" H 8150 1600 50  0001 C CNN
	1    8150 1600
	0    1    1    0   
$EndComp
$Comp
L Connector_Generic:Conn_01x01 J16
U 1 1 60797778
P 8450 2500
F 0 "J16" H 8530 2542 50  0000 L CNN
F 1 "VCC" H 8530 2451 50  0000 L CNN
F 2 "My_Library:SolderPad_1Pin_P2.54_VCC" H 8450 2500 50  0001 C CNN
F 3 "~" H 8450 2500 50  0001 C CNN
	1    8450 2500
	0    1    -1   0   
$EndComp
$Comp
L Connector_Generic:Conn_01x01 J15
U 1 1 6079777E
P 8350 2500
F 0 "J15" H 8430 2542 50  0000 L CNN
F 1 "GND" H 8430 2451 50  0000 L CNN
F 2 "My_Library:SolderPad_1Pin_P2.54_GND" H 8350 2500 50  0001 C CNN
F 3 "~" H 8350 2500 50  0001 C CNN
	1    8350 2500
	0    1    -1   0   
$EndComp
$Comp
L Connector_Generic:Conn_01x01 J13
U 1 1 60797784
P 8150 2500
F 0 "J13" H 8230 2542 50  0000 L CNN
F 1 "IN" H 8230 2451 50  0000 L CNN
F 2 "My_Library:SolderPad_1Pin_P2.54_IN" H 8150 2500 50  0001 C CNN
F 3 "~" H 8150 2500 50  0001 C CNN
	1    8150 2500
	0    1    -1   0   
$EndComp
$Comp
L Connector_Generic:Conn_01x01 J14
U 1 1 6079778A
P 8250 2500
F 0 "J14" H 8330 2542 50  0000 L CNN
F 1 "OUT" H 8330 2451 50  0000 L CNN
F 2 "My_Library:SolderPad_1Pin_P2.54_OUT" H 8250 2500 50  0001 C CNN
F 3 "~" H 8250 2500 50  0001 C CNN
	1    8250 2500
	0    1    -1   0   
$EndComp
$Comp
L TAMC:Logo Logo1
U 1 1 60F487CE
P 6550 7500
F 0 "Logo1" H 6575 7546 50  0000 L CNN
F 1 "Logo" H 6575 7455 50  0000 L CNN
F 2 "tamc:tamc-logo-1004" H 6550 7500 50  0001 C CNN
F 3 "" H 6550 7500 50  0001 C CNN
	1    6550 7500
	1    0    0    -1  
$EndComp
$EndSCHEMATC
